%YAML 1.1
%TAG !u! tag:unity3d.com,2011:
--- !u!114 &11400000
MonoBehaviour:
  m_ObjectHideFlags: 0
  m_CorrespondingSourceObject: {fileID: 0}
  m_PrefabInstance: {fileID: 0}
  m_PrefabAsset: {fileID: 0}
  m_GameObject: {fileID: 0}
  m_Enabled: 1
  m_EditorHideFlags: 0
  m_Script: {fileID: 11500000, guid: 8b799702322dd65408c241c528d8922a, type: 3}
  m_Name: GrenadeItem
  m_EditorClassIdentifier: 
  TypeOf: 0
  explosionEffect: {fileID: 0}
  radius: 2
  Force: 2000
  model: {fileID: 5937212905732718873, guid: cfeb52413b34e924caa81aaffaff1e9c, type: 3}
  Mat: {fileID: 0}
  sprt: {fileID: 10913, guid: 0000000000000000f000000000000000, type: 0}
  total: 4
