%YAML 1.1
%TAG !u! tag:unity3d.com,2011:
--- !u!114 &11400000
MonoBehaviour:
  m_ObjectHideFlags: 0
  m_CorrespondingSourceObject: {fileID: 0}
  m_PrefabInstance: {fileID: 0}
  m_PrefabAsset: {fileID: 0}
  m_GameObject: {fileID: 0}
  m_Enabled: 1
  m_EditorHideFlags: 0
  m_Script: {fileID: 11500000, guid: 8b799702322dd65408c241c528d8922a, type: 3}
  m_Name: Minetrap
  m_EditorClassIdentifier: 
  TypeOf: 1
  explosionEffect: {fileID: 0}
  radius: 5
  Force: 10
  model: {fileID: 1726987503012126589, guid: b2ff7021fbc561f49a344a8b3b844ba3, type: 3}
  Mat: {fileID: 2100000, guid: f22e56c1748f78b489ad94563d9977a4, type: 2}
  sprt: {fileID: 10917, guid: 0000000000000000f000000000000000, type: 0}
  total: 0
